                                                                                                                                                                                                                                                                                                                                                                                                                                                                                                                                                                                                                                                                                                                                                                                                                                                                                                                                                                                                                                                                                                                                                                                                                                                                                                                                                                                                                                                                                                                                                                                                                                                                                                                                                                                                                                                                                                                              {
  "spider":"./jar/moyu1204.jar;md5;be6121b5c37471b191114027123912d2",
  "wallpaper":"http://饭太硬.top/深色壁纸/api.php",
  "warningText":"摸鱼儿：资源来自网络，无盈利，纯技术分享，如有冒犯请联系删除。[所有内容仅供学习使用，请勿用于违法及商业用途，请勿付费购买]",
"sites":[
    {
      "key": "豆豆",
      "name": "摸摸🐟｜豆瓣推荐",
      "type": 3,
      "api": "csp_DouDou",
      "searchable": 0,
      "quickSearch": 0,
      "filterable": 0
    },
    {
      "key": "荐片",
      "name": "摸摸🐟｜12.06更新",
      "type": 3,
      "api": "https://fanty.run.goorm.site/ext/js/drpy2.min.js",
      "ext": "https://fanty.run.goorm.site/ext/jp.js"
    },
    {
      "key": "阿里云盘登录",
      "name": "摸摸🐟｜登陆token",
      "type": 3,
      "api": "csp_AliYunPan",
      "searchable": 0,
      "quickSearch": 0,
      "filterable": 0,
      "ext": "http://127.0.0.1:9978/file/TVBox/tok.txt",
      "jar":"./jar/og1204.jar;md5;33d3bd8c68d552c00020abface9ef61b"
    },
    {
     "key": "csp_KungFu404",
     "name":"摸摸🐟｜设置token",
     "type": 3, 
     "api": "csp_KungFu404", 
     "searchable":1,
     "filterable": 0, 
     "changeable":0,
     "jar":"./jar/alisz.jar"
    },
    {
      "key": "应用商店",
      "name": "摸摸🐟｜应用市场",
      "type": 3,
      "api": "csp_Market",
      "searchable": 0,
      "changeable": 0,
      "ext": "./json/moyuyysc.json",
      "jar": "./jar/moyu应用市场.jar"
    },
    {
      "key": "alist",
      "name": "摸摸🐟小鸭网盘",
      "type": 3,
      "api": "csp_AList",
      "searchable": 1,
      "quickSearch": 1,
      "filterable": 1,
      "ext": "http://alist.xn--z7x900a.live/alist.json",
      "jar": "./jar/PandaQ231205.jar;md5;9cc29f6286b2fe7910628852929c4bdb"
    },
    {
      "key": "csp_WoGG",
      "name": "4K-HDR🐟玩偶弹幕",
      "type": 3,
      "api": "csp_WoGG",
      "searchable": 1,
      "quickSearch": 1,
      "changeable": 0,
      "ext": "http://127.0.0.1:9978/file/tvfan/token.txt+auto|4k|fhd$$$https://api.wogg.xyz/$$$弹"
    },
    {
      "key": "影探",
      "name": "4K-HDR🐟影探",
      "type": 3,
      "api": "https://d.kstore.space/download/6296/js/lib/drpy2.min.js",
      "ext": "https://d.kstore.space/download/6296/js/yt.js"
    },
    {
      "key": "YiSo",
      "name": "4K-HDR🐟易搜",
      "type": 3,
      "api": "csp_YiSo",
      "searchable": 1,
      "quickSearch": 1,
      "filterable": 0,
      "changeable": 0,
      "ext": "http://127.0.0.1:9978/file/tvboxqq/token.txt+4k|fhd|auto"
    },
    {
      "key": "七夜",
      "name": "4K-HDR🐟七夜",
      "type": 3,
      "api": "csp_Dovx",
      "searchable": 1,
      "quickSearch": 1,
      "changeable": 0,
      "ext": "http://127.0.0.1:9978/file/tvfan/token.txt+auto|4k|fhd"
    },
    {
      "key": "UpYun",
      "name": "4K-HDR🐟UP搜",
      "type": 3,
      "api": "csp_UpYun",
      "searchable": 1,
      "quickSearch": 1,
      "filterable": 0,
      "changeable": 0,
      "ext": "http://127.0.0.1:9978/file/tvboxqq/token.txt+4k|fhd|auto"
    },
    {
      "key": "csp_XYQHikerdyx",
      "name": "4K-HDR🐟电影港",
      "type": 3,
      "api": "csp_XYQHiker",
      "searchable": 1,
      "quickSearch": 1,
      "filterable": 1,
      "ext": " https://jihulab.com/sxtv/1020/-/raw/main/%E7%A6%81%E6%AD%A2%E8%B4%A9%E5%8D%96/json/电影港.json",
      "jar":"https://jihulab.com/sxtv/1020/-/raw/main/%E7%A6%81%E6%AD%A2%E8%B4%A9%E5%8D%96/sx.jar"
    },
    {
      "key": "Zhaozy",
      "name": "4K-HDR🐟资源搜",
      "type": 3,
      "api": "csp_Zhaozy",
      "searchable": 1,
      "quickSearch": 1,
      "filterable": 0,
      "changeable": 0,
      "ext": "http://127.0.0.1:9978/file/tvboxqq/token.txt+4k|fhd|auto$$$wudidewo$$$wudi"
    },
    {
      "key": "AliPS",
      "name": "盘搜❤️4K",
      "type": 3,
      "api": "csp_AliPS",
      "searchable": 1,
      "quickSearch": 1,
      "filterable": 0,
      "ext": "http://127.0.0.1:9978/file/TVBox/tok.txt",
      "jar":"./jar/og1204.jar;md5;33d3bd8c68d552c00020abface9ef61b"
    },
    {
      "key": "Yisou",
      "name": "易搜❤️4K",
      "type": 3,
      "api": "csp_Yisou",
      "searchable": 1,
      "quickSearch": 1,
      "filterable": 0,
      "ext": "http://127.0.0.1:9978/file/TVBox/tok.txt",
      "jar":"./jar/og1204.jar;md5;33d3bd8c68d552c00020abface9ef61b"
    },
    {
      "key": "Upyunso",
      "name": "云搜❤️4K",
      "type": 3,
      "api": "csp_Upyunso",
      "searchable": 1,
      "quickSearch": 1,
      "filterable": 0,
      "ext": "http://127.0.0.1:9978/file/TVBox/tok.txt",
      "jar":"./jar/og1204.jar;md5;33d3bd8c68d552c00020abface9ef61b"
    },
    {
      "key": "Gitcafe",
      "name": "小纸条❤️4K",
      "type": 3,
      "api": "csp_Gitcafe",
      "searchable": 1,
      "quickSearch": 1,
      "filterable": 1,
      "ext": "http://127.0.0.1:9978/file/TVBox/tok.txt",
      "jar":"./jar/og1204.jar;md5;33d3bd8c68d552c00020abface9ef61b"
    },
    {
      "key": "易搜",
      "name": "易搜❤️4K",
      "type": 3,
      "api": "csp_YiSo",
      "searchable": 1,
      "changeable": 0,
      "jar":"./jar/og1204.jar;md5;33d3bd8c68d552c00020abface9ef61b"
    },
    {
      "key": "雲搜",
      "name": "云搜❤️4K",
      "type": 3,
      "api": "csp_UpYun",
      "searchable": 1,
      "changeable": 0,
      "jar":"./jar/og1204.jar;md5;33d3bd8c68d552c00020abface9ef61b"
    },
    {
      "key": "盤搜",
      "name": "盘搜💖4K",
      "type": 3,
      "api": "csp_PanSou",
      "searchable": 1,
      "changeable": 0,
      "jar":"./jar/og1204.jar;md5;33d3bd8c68d552c00020abface9ef61b"
    },
    {
      "key": "紙條搜",
      "name": "紙條💖4K",
      "type": 3,
      "api": "csp_XiaoZhiTiao",
      "searchable": 1,
      "changeable": 0,
      "jar":"./jar/og1204.jar;md5;33d3bd8c68d552c00020abface9ef61b"
    },
    {
      "key": "盤搜索",
      "name": "PanS💖4K",
      "type": 3,
      "api": "csp_PanSearch",
      "searchable": 1,
      "changeable": 0,
      "jar":"./jar/og1204.jar;md5;33d3bd8c68d552c00020abface9ef61b"
    },
    {
      "key": "找資源",
      "name": "找片💖4K",
      "type": 3,
      "api": "csp_Zhaozy",
      "searchable": 1,
      "changeable": 0,
      "ext": "$$$test2$$$test2",
      "jar":"./jar/og1204.jar;md5;33d3bd8c68d552c00020abface9ef61b"
    },
    {
      "key": "玩偶",
      "name": "玩偶💖4K",
      "type": 3,
      "api": "csp_Wogg",
      "searchable": 1,
      "changeable": 0,
      "ext": {
        "token": "影視天下第一",
        "filter": "./json/wogg.json"
      },
      "jar": "https://tvbox.cainisi.cf/jar/fm1124.jar;md5;1117603a248d03a2fba94c991612970f"
    },
    {
      "key": "橘子",
      "name": "1080P🐟橘子",
      "type": 3,
      "api": "csp_AppMao",
      "searchable": 1,
      "quickSearch": 1,
      "changeable": 0,
      "ext": "FbjDcUxPqpfNr0QF4QvE6sExbcJUCYdIVisPtbeywENfScyc6nTW0F+D7rX5HCm9c3SL03FsmGsmXS04XZMlbxEVW4/ZgwONbnobxj8KxeRpXqDxCWghfAf9JSR025yi92eOKqE9HokX9QQnl1WsU21CR4+dlEMDEsADd1xFGiiGtsh0vqJFAf41Z7sYL00hBBNM3xJsYyXCuX4BrzNYpZRwmcnwnXIHe2MtwbsJf0IAs6yM+y/ub+niyxOc2YuPbc/VUS4DGPqzelIi6plLWFvZ8+j2xcvAgopZxZFhBkIYCIIC5Uec/JW8RgW9WV1SKntGcmcd5yjIpagsmpXymH3a+FKzHKMB3LvXmR6onijWkP0VpivFgVVfjWrik4Yr0ZjZxKFA0uPQvy9l9EjPMNrQIj0sZjnpv7JmoMO+HfQ+lqKhJrQFq4MooyyGv6yhNv12IOHay3A="
    },
    {
      "key": "bttwo",
      "name": "1080P🐟bttwo",
      "type": 3,
      "playerType": "2",
      "api": "https://d.kstore.space/download/6296/js/lib/drpy2.min.js",
      "ext": "https://d.kstore.space/download/6296/js/两个BT.js"
    },
    {
      "key": "Libvio",
      "name": "1080P🐟Libvio",
      "type": 3,
      "playerType": "1",
      "api": "https://d.kstore.space/download/6296/js/lib/drpy2.min.js",
      "ext": "https://d.kstore.space/download/6296/js/LIBVIO.js"
    },
    {
      "key": "奇优",
      "name": "1080P🐟奇优",
      "type": 3,
      "playerType": "2",
      "api": "https://d.kstore.space/download/6296/js/lib/drpy2.min.js",
      "ext": "https://d.kstore.space/download/6296/js/奇优.js"
    },
    {
      "key": "虎虎",
      "name": "1080P🐟虎虎",
      "type": 3,
      "api": "csp_Panda",
      "ext": "./json/huhu.json",
      "jar": "./jar/PandaQ231205.jar;md5;9cc29f6286b2fe7910628852929c4bdb"
    },
    {
      "key": "龟龟",
      "name": "1080P🐟龟龟",
      "type": 3,
      "changeable": 1,
      "jar": "http://luoye.shop/b.jar;md5;bb155c3f0133bbce4756ad52003f5968",
      "api": "csp_XBPQ",
      "playerType": "2",
      "ext": {
        "主页url": "https://www.jugege.cc/",
        "副标题": "pic-text text-right\">&&</b>",
        "搜索模式": "1",
        "搜索url": "https://www.jugege.cc/vodsearch/{wd}-------------.html",
        "图片": "data-original=\"&&\"",
        "嗅探词": "huoshanvod.com#.mp4#m3u8#.m3u8#/tos/",
        "影片类型": "<div class=\"module-info-tag\">&&立即播放",
        "导演": "导演：&&</div>",
        "主演": "主演：&&</div>",
        "分类": "电影$1#连续剧$2#综艺$3#动漫$4",
        "分类url": "https://www.jugege.cc/vodshow/{cateId}-{area}-{by}--{lang}----{catePg}---{year}.html"
      }
    },
    {
      "key": "好戏",
      "name": "1080P🐟好戏",
      "type": 3,
      "jar": "http://luoye.shop/b.jar;md5;bb155c3f0133bbce4756ad52003f5968",
      "api": "csp_XBPQ",
      "ext": {
        "主页url": "https://haoxi.vip/",
        "简介": "简介：&&</li>",
        "导演": "导演：&&</li>",
        "主演": "主演：&&</li>",
        "影片状态": "状态：&&</li>",
        "影片类型": "类型：&&</li>",
        "影片地区": "地区：&&</li>",
        "影片年代": "年份：&&</li>",
        "嗅探词": "aliyuncs.com#.m3u8?#m3u8",
        "数组": "_self\" class=\"public-list-exp\"&&</div>",
        "标题": "title=\"&&\"",
        "副标题": "public-list-prb hide ft2\">&&</span>",
        "图片": "data-src=\"&&\"",
        "搜索url": "https://haoxi.vip/vodsearch/{wd}----------1---/",
        "搜索数组": "a target=\"_self\" class=\"public-list-exp\"&&thumb-else cor5 hide\">",
        "搜索标题": "<a target=\"_self\" href=*>&&</a>",
        "搜索副标题": "public-list-prb hide ft2\">&&</span>",
        "搜索图片": "data-src=\"&&\"",
        "线路数组": "<i class=\"fa ds-dianying\">&&/a>",
        "线路标题": "</i>&&<",
        "播放数组": "<ul class=\"anthology-list-play size\"&&</ul>",
        "播放标题": ">&&</a>",
        "播放列表": "<li&&</li>",
        "线路二次截取": "<div class=\"swiper-wrapper\"&&</div>",
        "分类url": "https://haoxi.vip/vodshow/{cateId}-{area}-{by}-{class}-{lang}----{catePg}---{year}/;;a",
        "分类": "电影$1#电视剧$2#综艺$3#动漫$4#B站$5#电影解说$43"
      }
    },
    {
      "key": "夜猫",
      "name": "1080P🐟夜猫",
      "type": 3,
      "api": "csp_XBPQ",
      "jar": "http://luoye.shop/b.jar;md5;bb155c3f0133bbce4756ad52003f5968",
      "searchable": 1,
      "quickSearch": 1,
      "filterable": 1,
      "ext": {
        "站名": "夜猫影视",
        "主页url": "http://43.248.97.249:5564/appto/v1/home/cateData?id=1",
        "请求头": "User-Agent$Dart/2.19 (dart:io)",
        "二次截取": "\"data\"*[&&]",
        "强制解析": "0",
        "数组": "{&&}",
        "图片": "\"vod_pic\"*\"&&\"",
        "标题": "\"vod_name\"*\"&&\"",
        "副标题": "\"vod_remarks\"*\"&&\"",
        "链接": "http://43.248.97.249:5564/addons/apptov4/app.php/v1/vod/getVod?id=+\"vod_id\":&&,+_platform=android&__ic=lqGGz9NM4aHVoD8jSoFFcmfeQ0zcjkG0a6dOiCPe4lHMGzMEigPzyXuhccQRZf6D75pAyu5qXZa8Woq50p8Xvf11kZq38Yk6UAkKR0nWIPWyUN%2BrL68%2FTxsj%2Fs%2F%2Bdvz3d9mhjzeyYUyI71OEzzkEnw%3D%3D",
        "线路数组": "\"player_info\":{&&}",
        "线路标题": "\"show\"*\"&&\"",
        "导演": "vod_director\"*\"&&\"",
        "主演": "vod_actor\"*\"&&\"",
        "简介": "vod_blurb\"*\"&&\"",
        "播放二次截取": "&&[替换]",
        "播放数组": "urls*\\[&&\\]",
        "播放列表": "{&&}",
        "跳转播放链接": "\"url\"*\"&&\"",
        "播放标题": "\"name\"*\"&&\"",
        "跳转解析": "默认$空#蓝光线路$https://daina.hk//api//?key=0555f1657f53450b3639bc1c48440db2&url=#官[YK]$https://api.json.icu//api//?key=c2ca5bcd969b7de3823eba1518fb712d&url=#官[MG]$https://api.json.icu//api//?key=c2ca5bcd969b7de3823eba1518fb712d&url=#官[QY]$https://api.json.icu//api//?key=c2ca5bcd969b7de3823eba1518fb712d&url=#官[TX]$https://api.json.icu//api//?key=c2ca5bcd969b7de3823eba1518fb712d&url=#蓝光备用$http://110.42.2.247:880//analysis//json//?uid=2441&my=egklmorFGJPQRUXY18&url=",
        "播放链接": "解析+\"url\"*\"&&\"",
        "搜索url": "http://43.248.97.249:5564/appto/v1/vod/getVodSearch?wd={wd}&page=1&type",
        "搜索模式": "1",
        "分类url": "http://43.248.97.249:5564/addons/apptov4/app.php/v1/vod/getLists?area=&lang=&year=&order=time&type_id={cateId}&type_name=&page={catePg}&pageSize=21;;u0",
        "分类": "电影$1#电视剧$2#动漫$3#综艺$4"
      }
    },
    {
      "key": "路人",
      "name": "1080P🐟路人",
      "api": "csp_AppYs",
      "type": 3,
      "playerType": "2",
      "ext": "http://app.huahai.pro/ruifenglb_api.php/v1.vod",
      "jar": "./jar/PandaQ231205.jar;md5;9cc29f6286b2fe7910628852929c4bdb"
    },
    {
      "key": "小小",
      "name": "1080P🐟小小",
      "type": 3,
      "api": "csp_AppSK",
      "searchable": 1,
      "quickSearch": 1,
      "changeable": 1,
      "ext": "FbjPcVZY48PN/RIZ5UWFrsgwaYYVSsIJD3UWs7i4yk1XUNSIsT3IgxCP9qyzByO7ZnqW3G0tjmslTGNlCJx9KFpYWdSQ0BTcKTlG3CAclaw3AOm0fS9oLx2taGFrzpf9uSKPPIBwToF3pEZBvQOlHhoMMOnm4EsAMpVefSVfagul7fFS8qxdQvcqdulXNwxSXwVqwgY9fgGounx/txZHh9k8mqD6nFJaZH0GwpEpXmVLgQ=="
    },
    {
      "key": "FREE1OK",
      "name": "1080P🐟free",
      "type": 3,
      "playerType": "1",
      "api": "https://d.kstore.space/download/6296/js/lib/drpy2.min.js",
      "ext": "https://d.kstore.space/download/6296/js/FreeOK.js"
    },
    {
      "key": "一起看 ",
      "name": "1080P🐟一起看",
      "type": 3,
      "api": "csp_YQKan",
      "searchable": 1,
      "quickSearch": 1,
      "changeable": 0
    },
    {
      "key": "繁星",
      "name": "1080P🐟繁星",
      "type": 3,
      "api": "csp_AppMao",
      "playerType": 1,
      "searchable": 1,
      "quickSearch": 1,
      "changeable": 0,
      "ext": "FbjDcUxPqpfNr0QF4QvE6sExbd4UXJxJXzdL462ywU1XScGa5G6Hj0/c+Ou1GW6rdX6N2XIhnD46QzIsRoZ8bk4fG4OYi0iCaWwRj2ddkacwFqHtLjQhalHqIy0+kpiTvmeOfJYxTshgrxcJ+g3lEHx7ZLC9kB1TCfZUSHwqHB3tt6V/1OhRENIOZNRFfXVBEFd7jQg+J06kjCAF7z1Bt8hRvMjC2VcbQXsEz8MCZDgu06C9/wirWcTa/wWJsfT+Z7fXbg8ZeqKSLCRI+/RRQBPc6vWx9MDProlGxbNkNVwDJ+xZqA3LjZmRIzHgX1pPRHIeXgUD1SnKnP50u+DrnDvAnzqAN4YbvKvEmRyu91mw5dothweuk0B210O5i9VKs/rU4uU1g5i9+xgl5lyke5uYNicyRgauyPMi/PGzF6pDzMihKbgasc93/HnGr6W4LuZjf6eYnS2GgRzWRE0fT5kOayt6Ra40Irmh/M2AvZsLJYWpGzIW"
    },
    {
      "key": "新视觉",
      "name": "1080P🐟视觉",
      "type": 3,
      "playerType": "2",
      "api": "https://d.kstore.space/download/6296/js/lib/drpy2.min.js",
      "ext": "https://d.kstore.space/download/6296/js/新视觉.js"
    },
    {
      "key": "爱看",
      "name": "1080P🐟爱看",
      "type": 3,
      "jar": "http://luoye.shop/b.jar;md5;bb155c3f0133bbce4756ad52003f5968",
      "api": "csp_XBPQ",
      "ext": {
        "主页url": "https://www.3ayy.com",
        "简介": "module-info-introduction\">&&</p>",
        "导演": "导演：&&</div>",
        "主演": "主演：&&</div>",
        "影片类型": "module-info-tag\">&&立即播放",
        "影片状态": "集数：&&</div>",
        "数组": "<a&&module-poster-item-info\"[不包含:夸克]",
        "标题": "title=\"&&\"",
        "副标题": "note\">&&</div>",
        "嗅探词": ".mp4#.m3u8",
        "过滤词": "/player/#/index/",
        "图片": "data-original=\"&&\"",
        "播放请求头": "User-Agent$Mozilla/5.0 (Macintosh; Intel Mac OS X 10_15_7) AppleWebKit/537.36 (KHTML, like Gecko) Chrome/118.0.0.0 Safari/537.36",
        "链接": "href=\"&&\"",
        "搜索url": "https://www.3ayy.com/index.php/ajax/suggest.html?mid=1&wd={wd}",
        "搜索模式": "1",
        "搜索二次截取": "\"list\":[&&]",
        "搜索数组": "{&&}",
        "搜索标题": "\"name\":\"&&\"",
        "搜索图片": "\"pic\":\"&&\"",
        "搜索链接": "https://www.3ayy.com/video/+\"id\":&&,+.html",
        "播放数组": "module-play-list-base\">&&</div>",
        "播放标题": "<span>&&</span>",
        "播放列表": "<a&&</a>",
        "分类url": "https://www.3ayy.com/vodshow/{cateId}-{area}-{by}-{class}-{lang}----{catePg}---{year}.html;;a",
        "分类": "电影$1#电视剧$2#综艺$3#动漫$4"
      }
    },
    {
      "key": "007影视",
      "name": "1080P🐟007",
      "type": 3,
      "playerType": "1",
      "api": "https://d.kstore.space/download/6296/js/lib/drpy2.min.js",
      "ext": "https://d.kstore.space/download/6296/js/007.js"
    },
    {
      "key": "csp_77",
      "name": "1080P🐟七七",
      "type": 3,
      "api": "csp_Kunyu77",
      "searchable": 1,
      "quickSearch": 1,
      "changeable": 1
    },
    {
      "key": "双黄",
      "name": "1080P🐟双黄",
      "type": 3,
      "jar": "http://luoye.shop/b.jar;md5;bb155c3f0133bbce4756ad52003f5968",
      "api": "csp_XBPQ",
      "ext": {
        "嗅探词": "v3.toutiaovod.com#v3-dy-o.zjcdn#.m3u8#/tos/#.mp4",
        "请求头": "手机#Referer$https://www.dandanju.cc/",
        "分类url": "https://www.dandanju.cc/show/{cateId}--------{catePg}---2023.html",
        "分类": "电影$1#剧集$2#动漫$4#综艺$4",
        "数组": " <li class=\"col-md-6 col-sm-4 col-xs-3&&</li",
        "搜索模式": "1",
        "搜索url": "https://www.dandanju.cc/search/{wd}----------1---.html",
        "搜索数组": "<li class=\"active clearfix&&</li"
      }
    },
    {
      "key": "低端",
      "name": "1080P🐟低端外剧",
      "type": 3,
      "playerType": "2",
      "api": "https://d.kstore.space/download/6296/js/lib/drpy2.min.js",
      "ext": "https://d.kstore.space/download/6296/js/ddys.js"
    },
    {
      "key": "热播库",
      "name": "1080P🐟热播库",
      "type": 3,
      "changeable": 1,
      "jar": "http://luoye.shop/b.jar;md5;bb155c3f0133bbce4756ad52003f5968",
      "api": "csp_XBPQ",
      "playerType": "1",
      "ext": {
        "主页url": "https://rebozj.pro",
        "数组": "class=\"stui-vodlist__thumb lazyload&&</a>",
        "图片": "data-original=\"&&\"",
        "标题": "title=\"&&\"",
        "链接": "href=\"&&\"",
        "副标题": "class=\"pic-text text-right\"><b>&&</span>",
        "搜索模式": "1",
        "嗅探词": ".m3u8#video_mp4#tos-#.mp4#cdn.123pan.cn#huoshanvod.com",
        "搜索url": "https://rebozj.pro/type/id-.html?wd={wd}",
        "线路数组": "<h4 class=\"title&&/h4>",
        "线路标题": ">&&<",
        "播放列表": "<a&&/a>",
        "播放标题": ">&&<",
        "影片类型": "类型：&&</p>",
        "导演": "导演：&&</p>",
        "主演": "主演：&&</p>",
        "简介": "display: none;\">&&</span>",
        "分类": "电视剧$2#电影$1#综艺$3#动漫$4",
        "分类url": "https://rebozj.pro/show/{cateId}--{area}------{catePg}---{year}.html;;a",
        "跳转播放链接": "urlDecode(vod_class*url\":\"&&\")"
      }
    },

    {
      "key": "csp_Anime1",
      "name": "动漫🐟日漫",
      "type": 3,
      "api": "csp_Anime1",
      "searchable": 1,
      "quickSearch": 1,
      "filterable": 1,
      "jar": "./jar/PandaQ231205.jar;md5;9cc29f6286b2fe7910628852929c4bdb"
    },
    {
      "key": "58动漫网",
      "name": "动漫🐟58",
      "type": 3,
      "api": "https://www.yingm.cc/dm/js/drpy2.min.js",
      "searchable": 1,
      "quickSearch": 1,
      "filterable": 1,
      "changeable": 1,
      "ext": "https://www.yingm.cc/dm/js/58动漫.js"
    },
    {
      "key": "维奇",
      "name": "动漫🐟维奇",
      "type": 3,
      "api": "csp_XBPQ",
      "searchable": 1,
      "quickSearch": 1,
      "filterable": 1,
      "ext": "https://www.yingm.cc/dm/json/维奇.json",
      "jar":"https://jihulab.com/clear1/yingmi/-/raw/main/jar/fan.jar"
    },
    {
      "key": "嘶哩嘶哩",
      "name": "动漫🐟嘶哩",
      "type": 3,
      "api": "https://drpy.cainisi.cf/libs/drpy2.min.js",
      "searchable": 1,
      "changeable": 1,
      "ext": "https://drpy.cainisi.cf/js/嘶哩嘶哩.js"
    },
    {
      "key": "去看吧",
      "name": "动漫🐟去看",
      "type": 3,
      "api": "csp_XBPQ",
      "searchable": 1,
      "quickSearch": 1,
      "filterable": 1,
      "ext": "https://www.yingm.cc/dm/json/去看吧.json",
      "jar":"https://jihulab.com/clear1/yingmi/-/raw/main/jar/fan.jar"
    },
    {
      "key": "csp_Czsapp",
      "name": "🐟厂长┃直连",
      "type": 3,
      "api": "csp_Czsapp",
      "playerType": 2,
      "searchable": 1,
      "changeable": 0,
      "quickSearch": 1,
      "ext": "https://www.czzy88.com/",
      "filterable": 1
    },
    {
      "key": "哔嘀",
      "name": "🐟哔嘀┃直连",
      "type": 3,
      "api": "csp_Bdys",
      "searchable": 1,
      "quickSearch": 1,
      "filterable": 1,
      "jar": "./jar/ogjar.php;md5;4ebdfa80cc9c36349563afa7aa2acf49"
    },
    {
      "key": "Auete",
      "name": "🐟奥特直连",
      "type": 3,
      "api": "csp_Auete",
      "searchable": 1,
      "quickSearch": 1,
      "changeable": 0
    },
    {
      "key": "360_spider",
      "name": "🐟360┃直连",
      "type": 3,
      "api": "csp_SP360",
      "filterable": 1,
      "quickSearch": 1,
      "searchable": 1,
      "jar": "./jar/ogjar.php;md5;4ebdfa80cc9c36349563afa7aa2acf49"
    },
    {
      "key": "低端",
      "name": "🐟低端┃直连",
      "type": 3,
      "api": "csp_Ddys",
      "searchable": 1,
      "quickSearch": 1,
      "filterable": 1,
      "jar": "./jar/ogjar.php;md5;4ebdfa80cc9c36349563afa7aa2acf49"
    },
    {
      "key": "红牛资源",
      "name": "🎀红牛┃采集",
      "type": 1,
      "api": "https://www.hongniuzy2.com/api.php/provide/vod/",
      "searchable": 1,
      "changeable": 1,
      "categories": [
        "动作片",
        "喜剧片",
        "爱情片",
        "科幻片",
        "恐怖片",
        "剧情片",
        "战争片",
        "国产剧",
        "港澳剧",
        "日剧",
        "欧美剧",
        "台湾剧",
        "泰剧",
        "韩剧",
        "纪录片",
        "动漫电影"
      ]
    },
    {
      "key": "索尼资源",
      "name": "🎀索尼采集",
      "type": 1,
      "api": "https://suoniapi.com/api.php/provide/vod/",
      "searchable": 1,
      "changeable": 1,
      "categories": [
        "动作片",
        "喜剧片",
        "爱情片",
        "科幻片",
        "恐怖片",
        "剧情片",
        "战争片",
        "纪录片",
        "动画片",
        "国产剧",
        "欧美剧",
        "韩剧",
        "日剧",
        "港剧",
        "台剧",
        "泰剧",
        "海外剧",
        "大陆综艺",
        "日韩综艺",
        "港台综艺",
        "欧美综艺",
        "国产动漫",
        "日韩动漫",
        "欧美动漫",
        "港台动漫",
        "海外动漫"
      ]
    },
    {
      "key": "光速资源",
      "name": "🎀光速┃采集",
      "type": 1,
      "api": "http://api.guangsuapi.com/api.php/provide/vod/",
      "searchable": 1,
      "changeable": 1,
      "categories": [
        "动作片",
        "喜剧片",
        "爱情片",
        "科幻片",
        "剧情片",
        "恐怖片",
        "战争片",
        "动漫电影",
        "大陆剧",
        "欧美剧",
        "港澳剧",
        "韩剧",
        "日剧",
        "台湾剧",
        "泰剧",
        "综艺",
        "动漫",
        "记录片"
      ]
    },
    {
      "key": "极速资源",
      "name": "🎀极速┃采集",
      "type": 1,
      "api": "https://jszyapi.com/api.php/provide/vod/",
      "searchable": 1,
      "changeable": 1,
      "categories": [
        "日剧",
        "马泰剧",
        "内地剧",
        "欧美剧",
        "香港剧",
        "韩剧",
        "台湾剧",
        "恐怖片",
        "动画片",
        "剧情片",
        "战争片",
        "动作片",
        "记录片",
        "爱情片",
        "喜剧片",
        "科幻片",
        "灾难片",
        "悬疑片",
        "犯罪片",
        "中国动漫",
        "日本动漫",
        "欧美动漫"
      ]
    },
    {
      "key": "快车资源",
      "name": "🎀快车┃采集",
      "type": 1,
      "api": "https://caiji.kczyapi.com/api.php/provide/vod/",
      "searchable": 1,
      "changeable": 1,
      "categories": [
        "动作片",
        "喜剧片",
        "爱情片",
        "科幻片",
        "恐怖片",
        "战争片",
        "剧情片",
        "动画片",
        "纪录片",
        "国产剧",
        "香港剧",
        "台湾剧",
        "欧美剧",
        "韩国剧",
        "日本剧",
        "泰国剧",
        "海外剧",
        "国产动漫",
        "日本动漫",
        "欧美动漫",
        "大陆综艺",
        "日韩综艺",
        "港台综艺",
        "欧美综艺"
      ]
    },
    {
      "key": "量子资源",
      "name": "🎀量子┃采集",
      "type": 1,
      "api": "https://cj.lziapi.com/api.php/provide/vod/",
      "searchable": 1,
      "changeable": 1,
      "categories": [
        "动作片",
        "喜剧片",
        "科幻片",
        "恐怖片",
        "爱情片",
        "剧情片",
        "战争片",
        "记录片",
        "国产剧",
        "欧美剧",
        "香港剧",
        "韩国剧",
        "台湾剧",
        "日本剧",
        "海外剧",
        "泰国剧",
        "国产动漫",
        "日韩动漫",
        "欧美动漫",
        "港台动漫",
        "海外动漫",
        "大陆综艺",
        "港台综艺",
        "日韩综艺",
        "欧美综艺"
      ]
    },
    {
      "key": "非凡资源",
      "name": "🎀非凡┃采集",
      "type": 1,
      "api": "http://cj.ffzyapi.com/api.php/provide/vod/",
      "searchable": 1,
      "changeable": 1,
      "categories": [
        "动作片",
        "喜剧片",
        "科幻片",
        "恐怖片",
        "爱情片",
        "剧情片",
        "战争片",
        "记录片",
        "国产剧",
        "欧美剧",
        "香港剧",
        "韩国剧",
        "台湾剧",
        "日本剧",
        "海外剧",
        "泰国剧",
        "国产动漫",
        "日韩动漫",
        "欧美动漫",
        "港台动漫",
        "海外动漫",
        "大陆综艺",
        "港台综艺",
        "日韩综艺",
        "欧美综艺"
      ]
    },
    {
      "key": "短剧网",
      "name": "💚短剧网",
      "type": 3,
      "api": "csp_Duanjuw",
      "searchable": 1,
      "quickSearch": 1,
      "changeable": 1,
      "jar": "./jar/ogjar.php;md5;4ebdfa80cc9c36349563afa7aa2acf49"
    },
    {
      "key": "csp_AppYsV2_Mxone",
      "name": "💚短剧星",
      "type": 3,
      "api": "csp_AppYsV2",
      "searchable": 1,
      "quickSearch": 1,
      "filterable": 1,
      "ext": "https://www.kuin.one/api.php/app/",
      "jar": "./jar/ogjar.php;md5;4ebdfa80cc9c36349563afa7aa2acf49"
    },
    {
      "key": "js_DJ5",
      "name": "💚短剧屋",
      "type": 3,
      "api": "http://qrh.yimkj.cn/ym/lib/apiv15drpy2.min.js",
      "searchable": 1,
      "quickSearch": 1,
      "filterable": 1,
      "ext": "http://qrh.yimkj.cn/ym/lib/短剧网.js"
    },
    {
      "key": "csp_XYQHiker_VSYY",
      "name": "💚短剧屋VSY",
      "type": 3,
      "searchable": 1,
      "quickSearch": 1,
      "filterable": 1,
      "api": "csp_XYQHiker",
      "jar": "https://jihulab.com/zxjk/jk/-/raw/main/qrh/spider1.txt;md5;A21EA6F5DD3B5F922B3A7F54D3BD0F16",
      "ext": "http://qrh.yimkj.cn/ym/lib/VS影院.json"
    },
    {
      "key": "csp_XBPQ_aoaotv",
      "name": "💚嗷嗷短剧",
      "type": 3,
      "api": "csp_XBPQ",
      "searchable": 1,
      "quickSearch": 1,
      "filterable": 1,
      "jar": "https://jihulab.com/zxjk/jk/-/raw/main/qrh/duo.jar;md5;5C5116C70E15343433C8480C3B448408",
      "ext": {
        "分类url": "https://aoao.tv/vodshow/{cateId}--------{catePg}---.html",
        "分类": "短剧$20#电视剧$21#电影$22#动漫$23#综艺$24"
      }
    },
    {
      "key": "csp_Bili短剧",
      "name": "💚哔哩短剧",
      "api": "csp_Bili",
      "type": 3,
      "searchable": 1,
      "quickSearch": 1,
      "filterable": 1,
      "jar": "https://jihulab.com/zxjk/jk/-/raw/main/qrh/spider1.txt;md5;A21EA6F5DD3B5F922B3A7F54D3BD0F16",
      "ext": "http://qrh.yimkj.cn/ym/lib/Bili短剧.json"
    },
    {
      "key": "PT",
      "name": "💚葡萄短剧",
      "type": 3,
      "api": "csp_XBPQ",
      "ext": {
        "数组": "class=\"stui-vodlist__box&&</li",
        "分类url": "https://www.putaojuchang.com/show/{cateId}/area/{area}/class/{class}/by/{by}/page/{catePg}/year/{year}.html",
        "分类": "微剧场$1#言情$6#逆袭$7#战神$8#异能$9#生活$10#重生$12#复仇$20#爱情$11"
      },
      "jar":"https://jihulab.com/sxtv/1020/-/raw/main/%E7%A6%81%E6%AD%A2%E8%B4%A9%E5%8D%96/sx.jar"
    },
    {
      "key": "MV_vod",
      "name": "🐟明星MV",
      "type": 1,
      "api": "https://mv.wogg.link/mv/vod",
      "style": {
        "type": "oval"
      },
      "searchable": 1,
      "quickSearch": 0,
      "changeable": 0
    },
    {
      "key": "Bili",
      "name": "🐟哔哩合集",
      "type": 3,
      "api": "csp_Bili",
      "style": {
        "type": "rect",
        "ratio": 1.597
      },
      "searchable": 1,
      "quickSearch": 0,
      "changeable": 0,
      "jar":"./jar/fan1.txt;md5;ea2690fc66083afe1431071968e60395",
      "ext": "https://fanty.run.goorm.site/ext/bilibili.json"
    },
    {
      "key": "Biliych",
      "name": "🐟哔哩歌曲",
      "type": 3,
      "api": "csp_Bili",
      "style": {
        "type": "rect",
        "ratio": 1.597
      },
      "searchable": 1,
      "quickSearch": 0,
      "changeable": 0,
      "jar":"./jar/fan1.txt;md5;ea2690fc66083afe1431071968e60395",
      "ext": "https://fanty.run.goorm.site/ext/biliych.json"
    },
    {
      "key": "drpy_js_88看球",
      "name": "🐟球赛直播",
      "type": 3,
      "api": "csp_Panda",
      "changeable": 0,
      "style": {
        "type": "rect",
        "ratio": 1
      },
      "ext": "https://d.kstore.space/download/6296/json/88看球.json",
      "jar": "./jar/PandaQ231205.jar;md5;9cc29f6286b2fe7910628852929c4bdb"
    },
    {
      "key": "虎牙直播js",
      "name": "🐟虎牙直播",
      "type": 3,
      "api": "https://fanty.run.goorm.site/ext/js/drpy2.min.js",
      "ext": "https://fanty.run.goorm.site/ext/虎牙直播.js",
      "style": {
        "type": "rect",
        "ratio": 1.755
      },
      "searchable": 0,
      "quickSearch": 0,
      "changeable": 0
    },
    {
      "key": "csp_XYQBiu_斗鱼",
      "name": "🐟斗鱼直播",
      "type": 3,
      "api": "https://fanty.run.goorm.site/ext/js/drpy2.min.js",
      "ext": "https://fanty.run.goorm.site/ext/斗鱼直播.js",
      "style": {
        "type": "rect",
        "ratio": 1.755
      },
      "searchable": 0,
      "quickSearch": 0,
      "changeable": 0
    },
    {
      "key": "相声",
      "name": "摸摸🐟｜相声",
      "type": 3,
      "searchable": 0,
      "style": {
        "type": "rect",
        "ratio": 1.597
      },
      "quickSearch": 0,
      "api": "csp_XBPQ",
      "jar": "http://luoye.shop/b.jar;md5;1484e86a3a4463eaf8ef41c6832a1df0",
      "ext": {
        "主页url": "https://www.xsmp3.com",
        "数组二次截取": "<ul id=\"post_list_box\">&&</ul",
        "数组": "<li class=\"www_xsmp3_com post_list_li\">&&</div>",
        "图片": "https://gd-filems.dancf.com/gaoding/cms/mcm79j/mcm79j/59385/6a211035-3658-45ce-a476-79f6f5dc02b71172884.png?x-oss-process=image/resize,h_1308/interlace,1",
        "标题": "title=\"&&\"",
        "副标题": ">&&</a",
        "链接": "href=\"&&\"",
        "播放二次截取": "autoplay&&;</script>",
        "播放数组": "\\[&&\\]",
        "播放列表": "{&&}",
        "播放链接": "url*\"&&\"",
        "播放标题": "name*\"&&\"",
        "播放副标题": "artist*\"&&\"",
        "线路数组": "相声随身听",
        "线路标题": "相声随身听",
        "导演": "摸鱼",
        "主演": "相声明星",
        "简介": "相声合集",
        "分类url": "https://www.xsmp3.com/{cateId}/{catePg}.html;;av",
        "分类": "郭德纲$gdg#德云社$dys#新势力$xsxsl#青区社$qqs#马三立$msl#更多$xsmj"
      }
    },
    {
      "key": "评书",
      "name": "摸摸🐟｜书评",
      "type": 3,
      "searchable": 0,
      "style": {
        "type": "rect",
        "ratio": 1.597
      },
      "quickSearch": 0,
      "api": "csp_XBPQ",
      "jar": "http://luoye.shop/b.jar;md5;1484e86a3a4463eaf8ef41c6832a1df0",
      "ext": {
        "主页url": "https://www.psmp3.com",
        "数组二次截取": "<ul id=\"post_list_box\">&&</ul",
        "数组": "<li class=\"www_psmp3_com post_list_li\">&&</div>",
        "图片": "https://bkimg.cdn.bcebos.com/pic/86d6277f9e2f07084e3cb402ee24b899a901f2f3",
        "标题": "title=\"&&\"",
        "副标题": ">&&</a",
        "链接": "href=\"&&\"",
        "播放二次截取": "autoplay&&;</script>",
        "播放数组": "\\[&&\\]",
        "播放列表": "{&&}",
        "播放链接": "url*\"&&\"",
        "播放标题": "name*\"&&\"",
        "播放副标题": "artist*\"&&\"",
        "线路数组": "评书随身听",
        "线路标题": "评书随身听",
        "导演": "摸鱼",
        "主演": "评书明星",
        "简介": "评书合集",
        "分类url": "https://www.psmp3.com/{cateId}/{catePg}.html;;av",
        "分类": "袁阔成$ykc#单田芳$stf#田连元$tly#刘兰芳$llf#连丽如$llr#张少佐$zsz#田战义$tzy"
      }
    },
    {
      "key": "js_baby",
      "name": "👶┃宝宝合集",
      "type": 3,
      "api": "http://qrh.yimkj.cn/ym/lib/apiv15drpy2.min.js",
      "searchable": 1,
      "quickSearch": 1,
      "filterable": 1,
      "ext": "http://qrh.yimkj.cn/ym/lib/baby.js",
      "jar": "./jar/ym1130.jar;md5;md5;D42CC8D191481FC9BEEB1BFF4BC747CB"
    },
    {
      "key": "js_童趣",
      "name": "👶童趣搜视",
      "type": 3,
      "api": "http://qrh.yimkj.cn/ym/lib/apiv15drpy2.min.js",
      "searchable": 1,
      "quickSearch": 1,
      "filterable": 1,
      "ext": "http://qrh.yimkj.cn/ym/lib/tongqu.js",
      "jar": "./jar/ym1130.jar;md5;md5;D42CC8D191481FC9BEEB1BFF4BC747CB"
    },
    {
      "key": "dr_兔小贝",
      "name": "📚儿童┃启蒙",
      "type": 3,
      "api": "https://fanty.run.goorm.site/ext/js/drpy2.min.js",
      "ext": "https://fanty.run.goorm.site/ext/%E5%85%94%E5%B0%8F%E8%B4%9D.js",
      "style": {
        "type": "rect",
        "ratio": 1.597
      },
      "searchable": 0,
      "quickSearch": 0,
      "changeable": 0,
      "jar":"./jar/fan1.txt;md5;ea2690fc66083afe1431071968e60395"
    },
    {
      "key": "少儿教育",
      "name": "📚少儿┃教育",
      "type": 3,
      "api": "csp_Bili",
      "style": {
        "type": "rect",
        "ratio": 1.597
      },
      "searchable": 0,
      "quickSearch": 0,
      "changeable": 0,
      "ext": "https://fanty.run.goorm.site/ext/少儿教育.json",
      "jar":"./jar/fan1.txt;md5;ea2690fc66083afe1431071968e60395"
    },
    {
      "key": "小学课堂",
      "name": "📚小学┃课堂",
      "type": 3,
      "api": "csp_Bili",
      "style": {
        "type": "rect",
        "ratio": 1.597
      },
      "searchable": 0,
      "quickSearch": 0,
      "changeable": 0,
      "ext": "https://fanty.run.goorm.site/ext/小学课堂.json",
      "jar":"./jar/fan1.txt;md5;ea2690fc66083afe1431071968e60395"
    },
    {
      "key": "初中课堂",
      "name": "📚初中┃课堂",
      "type": 3,
      "api": "csp_Bili",
      "style": {
        "type": "rect",
        "ratio": 1.597
      },
      "searchable": 0,
      "quickSearch": 0,
      "changeable": 0,
      "ext": "https://fanty.run.goorm.site/ext/初中课堂.json",
      "jar":"./jar/fan1.txt;md5;ea2690fc66083afe1431071968e60395"
    },
    {
      "key": "高中教育",
      "name": "📚高中┃课堂",
      "type": 3,
      "api": "csp_Bili",
      "style": {
        "type": "rect",
        "ratio": 1.597
      },
      "searchable": 0,
      "quickSearch": 0,
      "changeable": 0,
      "ext": "https://fanty.run.goorm.site/ext/高中课堂.json",
      "jar":"./jar/fan1.txt;md5;ea2690fc66083afe1431071968e60395"
    },
    {
      "key": "push_agent0",
      "name": "数据源于互联网搜索｜仅供测试",
      "type": 3,
      "api": "csp_Push",
      "searchable": 1,
      "quickSearch": 1,
      "filterable": 1,
      "ext": "http://127.0.0.1:9978/file/tvboxqq/token.txt"
    },
    {
      "key": "push_agent1",
      "name": "请于24小时内删除测试内容｜QQ群536992286",
      "type": 3,
      "api": "csp_Push",
      "searchable": 1,
      "quickSearch": 1,
      "filterable": 1,
      "ext": "http://127.0.0.1:9978/file/tvboxqq/token.txt"
    },
    {
      "key": "push_agent2",
      "name": "诸多资源更新公告|关注夕颜社区",
      "type": 3,
      "api": "csp_Push",
      "searchable": 1,
      "quickSearch": 1,
      "filterable": 1,
      "ext": "http://127.0.0.1:9978/file/tvboxqq/token.txt"
    }
],
  "lives": [
    {
      "name": "live",
      "type": 0,
      "url": "./moyuive.txt",
      "ua": "okhttp/3.12.13",
      "epg": "http://epg.112114.xyz/?ch={name}&date={date}",
      "logo": "https://epg.112114.xyz/logo/{name}.png"
    }
  ],
  "parses": [
    {
      "name": "聚合解析",
      "type": 3,
      "url": "Demo"
    },
    {
      "name": "聚合嗅探",
      "type": 3,
      "url": "Web"
    },
    {
      "name": "摸鱼",
      "type": 1,
      "url": "",
      "ext": {
        "flag": [
          "mgtv",
          "qiyi",
          "imgo",
          "爱奇艺",
          "奇艺",
          "qq",
          "腾讯",
          "youku",
          "优酷",
          "pptv",
          "PPTV",
          "letv",
          "乐视",
          "leshi",
          "bilibili",
          "哔哩哔哩",
          "哔哩",
          "mgtv",
          "芒果",
          "芒果"
        ],
        "header": {
          "User-Agent": "okhttp/3.12.0"
        }
      }
    },
    {
      "name": "免费",
      "type": 1,
      "url": "https://json.oorl.cn/api/?key=gajpAki7cu8560ro4C&url=",
      "ext": {
        "flag": [
          "爱奇艺",
          "奇艺",
          "qq",
          "腾讯",
          "youku",
          "优酷",
          "pptv",
          "PPTV",
          "letv",
          "乐视",
          "leshi",
          "bilibili",
          "哔哩哔哩",
          "哔哩",
          "mgtv",
          "芒果",
          "芒果"
        ],
        "header": {
          "User-Agent": "okhttp/4.1.0"
        }
      }
    },
    {
      "name": "分享",
      "type": 1,
      "url": "https://api.huohua.vip/api/?key=8eTRVUKvl0tvEzlvzO&url=",
      "ext": {
        "flag": [
          "qq",
          "腾讯",
          "qiyi",
          "爱奇艺",
          "奇艺",
          "youku",
          "优酷",
          "tucheng",
          "sohu",
          "搜狐",
          "letv",
          "乐视",
          "mgtv",
          "芒果",
          "tnmb",
          "seven",
          "yzm",
          "aliyun",
          "RJuMao",
          "bilibili",
          "1905",
          "xinvip",
          "XAL",
          "qiqi",
          "XALS",
          "YuMi-vip"
        ],
        "header": {
          "User-Agent": "okhttp/4.1.0"
        }
      }
    },
    {
      "name": "切勿",
      "type": 0,
      "url": "https://jx.xmflv.com/?url=",
      "ext": {
        "flag": [
          "爱奇艺",
          "奇艺",
          "qq",
          "腾讯",
          "youku",
          "优酷",
          "pptv",
          "PPTV",
          "letv",
          "乐视",
          "leshi",
          "bilibili",
          "哔哩哔哩",
          "哔哩",
          "mgtv",
          "芒果",
          "芒果"
        ],
        "header": {
          "User-Agent": "Mozilla/5.0 (Linux; Android 6.0; Nexus 5 Build/MRA58N) AppleWebKit/537.36 (KHTML, like Gecko) Chrome/118.0.0.0 Mobile Safari/537.36"
        }
      }
    },
    {
      "name": "贩卖",
      "type": 1,
      "url": "http://110.42.2.247:880/analysis/json/?uid=2500&my=dmnoxzADHKMOQSXZ01&url=",
      "ext": {
        "flag": [
          "seven"
        ]
      }
    }
  ],
  "rules": [
    {
      "host": "www.iesdouyin.com",
      "rule": [
        "playwm/?video_id="
      ]
    },
    {
      "host": "www.ysgc.vip",
      "rule": [
        "getm3u8?url=http"
      ]
    },
    {
      "host": "v.douyin.com",
      "rule": [
        "playwm/?video_id="
      ]
    },
    {
      "host": "*",
      "rule": [
        "default.365yg.com",
        "video_mp4",
        "video/tos"
      ]
    },
    {
      "host": "dyxs20.com",
      "rule": [
        ".m3u8"
      ]
    },
    {
      "host": "www.agemys.cc",
      "rule": [
        "cdn-tos",
        "obj/tos-cn"
      ]
    },
    {
      "host": "www.sharenice.net",
      "rule": [
        "http.*?/play.{0,3}\\?[^url]{2,8}=.*"
      ]
    },
    {
      "host": "www.sharenice.net",
      "rule": [
        "qianpailive.com",
        "vid="
      ]
    },
    {
      "host": "*",
      "rule": [
        "douyin.com/aweme",
        "video_id="
      ]
    },
    {
      "host": "*",
      "rule": [
        "huoshan.com",
        "/item/video/"
      ]
    },
    {
      "host": "*",
      "rule": [
        "http((?!http).){12,}?\\.(m3u8|mp4|flv|avi|mkv|rm|wmv|mpg|m4a)\\?.*"
      ]
    },
    {
      "host": "*",
      "rule": [
        "http((?!http).){12,}\\.(m3u8|mp4|flv|avi|mkv|rm|wmv|mpg|m4a)"
      ]
    },
    {
      "name": "量子广告",
      "hosts": [
        "vip.lz",
        "hd.lz"
      ],
      "regex": [
        "#EXT-X-DISCONTINUITY\\r*\\n*#EXTINF:6.433333,[\\s\\S]*?#EXT-X-DISCONTINUITY"
      ]
    },
    {
      "name": "非凡广告",
      "hosts": [
        "vip.ffzy",
        "hd.ffzy"
      ],
      "regex": [
        "#EXT-X-DISCONTINUITY\\r*\\n*#EXTINF:6.666667,[\\s\\S]*?#EXT-X-DISCONTINUITY"
      ]
    },
    {
      "name": "暴风广告",
      "hosts": [
        "bfzy",
        "s5.bfzycdn"
      ],
      "regex": [
        "#EXT-X-DISCONTINUITY\\r*\\n*#EXTINF:3,[\\s\\S]*?#EXT-X-DISCONTINUITY",
        "#EXTINF.*?\\s+.*?1o.*?\\.ts\\s+"
      ]
    },
    {
      "name": "磁力广告",
      "hosts": [
        "magnet"
      ],
      "regex": [
        "更多",
        "社 區",
        "x u u",
        "最 新",
        "直 播",
        "更 新",
        "社 区",
        "有 趣",
        "英皇体育",
        "全中文AV在线",
        "澳门皇冠赌场",
        "哥哥快来",
        "美女荷官",
        "裸聊",
        "新片首发",
        "UUE29"
      ]
    }
  ],
  "flags": [
    "youku",
    "qq",
    "iqiyi",
    "qiyi",
    "letv",
    "sohu",
    "tudou",
    "pptv",
    "mgtv",
    "wasu",
    "bilibili",
    "renrenmi",
    "duoduozy",
    "xinluan",
    "ddzy",
    "tgqp",
    "tkqp",
    "XRJX"
  ],
  "ijk": [
    {
      "group": "软解码",
      "options": [
        {
          "category": 4,
          "name": "opensles",
          "value": "0"
        },
        {
          "category": 4,
          "name": "overlay-format",
          "value": "842225234"
        },
        {
          "category": 4,
          "name": "framedrop",
          "value": "1"
        },
        {
          "category": 4,
          "name": "soundtouch",
          "value": "1"
        },
        {
          "category": 4,
          "name": "start-on-prepared",
          "value": "1"
        },
        {
          "category": 1,
          "name": "http-detect-range-support",
          "value": "0"
        },
        {
          "category": 1,
          "name": "fflags",
          "value": "fastseek"
        },
        {
          "category": 2,
          "name": "skip_loop_filter",
          "value": "48"
        },
        {
          "category": 4,
          "name": "reconnect",
          "value": "1"
        },
        {
          "category": 4,
          "name": "enable-accurate-seek",
          "value": "0"
        },
        {
          "category": 4,
          "name": "mediacodec",
          "value": "0"
        },
        {
          "category": 4,
          "name": "mediacodec-auto-rotate",
          "value": "0"
        },
        {
          "category": 4,
          "name": "mediacodec-handle-resolution-change",
          "value": "0"
        },
        {
          "category": 4,
          "name": "mediacodec-hevc",
          "value": "0"
        },
        {
          "category": 1,
          "name": "dns_cache_timeout",
          "value": "600000000"
        }
      ]
    },
    {
      "group": "硬解码",
      "options": [
        {
          "category": 4,
          "name": "opensles",
          "value": "0"
        },
        {
          "category": 4,
          "name": "overlay-format",
          "value": "842225234"
        },
        {
          "category": 4,
          "name": "framedrop",
          "value": "1"
        },
        {
          "category": 4,
          "name": "soundtouch",
          "value": "1"
        },
        {
          "category": 4,
          "name": "start-on-prepared",
          "value": "1"
        },
        {
          "category": 1,
          "name": "http-detect-range-support",
          "value": "0"
        },
        {
          "category": 1,
          "name": "fflags",
          "value": "fastseek"
        },
        {
          "category": 2,
          "name": "skip_loop_filter",
          "value": "48"
        },
        {
          "category": 4,
          "name": "reconnect",
          "value": "1"
        },
        {
          "category": 4,
          "name": "enable-accurate-seek",
          "value": "0"
        },
        {
          "category": 4,
          "name": "mediacodec",
          "value": "1"
        },
        {
          "category": 4,
          "name": "mediacodec-auto-rotate",
          "value": "1"
        },
        {
          "category": 4,
          "name": "mediacodec-handle-resolution-change",
          "value": "1"
        },
        {
          "category": 4,
          "name": "mediacodec-hevc",
          "value": "1"
        },
        {
          "category": 1,
          "name": "dns_cache_timeout",
          "value": "600000000"
        }
      ]
    }
  ],
  "ads": [
    "mimg.0c1q0l.cn",
    "www.googletagmanager.com",
    "www.google-analytics.com",
    "mc.usihnbcq.cn",
    "mg.g1mm3d.cn",
    "mscs.svaeuzh.cn",
    "cnzz.hhttm.top",
    "tp.vinuxhome.com",
    "cnzz.mmstat.com",
    "www.baihuillq.com",
    "s23.cnzz.com",
    "z3.cnzz.com",
    "c.cnzz.com",
    "stj.v1vo.top",
    "z12.cnzz.com",
    "img.mosflower.cn",
    "tips.gamevvip.com",
    "ehwe.yhdtns.com",
    "xdn.cqqc3.com",
    "www.jixunkyy.cn",
    "sp.chemacid.cn",
    "hm.baidu.com",
    "s9.cnzz.com",
    "z6.cnzz.com",
    "um.cavuc.com",
    "mav.mavuz.com",
    "wofwk.aoidf3.com",
    "z5.cnzz.com",
    "xc.hubeijieshikj.cn",
    "tj.tianwenhu.com",
    "xg.gars57.cn",
    "k.jinxiuzhilv.com",
    "cdn.bootcss.com",
    "ppl.xunzhuo123.com",
    "xomk.jiangjunmh.top",
    "img.xunzhuo123.com",
    "z1.cnzz.com",
    "s13.cnzz.com",
    "xg.huataisangao.cn",
    "z7.cnzz.com",
    "xg.huataisangao.cn",
    "z2.cnzz.com",
    "s96.cnzz.com",
    "q11.cnzz.com",
    "thy.dacedsfa.cn",
    "xg.whsbpw.cn",
    "s19.cnzz.com",
    "z8.cnzz.com",
    "s4.cnzz.com",
    "f5w.as12df.top",
    "ae01.alicdn.com",
    "www.92424.cn",
    "k.wudejia.com",
    "vivovip.mmszxc.top",
    "qiu.xixiqiu.com",
    "cdnjs.hnfenxun.com",
    "cms.qdwght.com"
  ]
}
